게임 컨셉

* 함선의 종류 *	
	1) 어썰트
		- 특징: 기동성이 높고 높은 데미지를 자랑한다.
				하지만 내구력이 매우 약하다.
				상대의 뒤를 계속 추적하는 공격방식을 가지고 있다.
	2) 캐리어
		- 특징: 엄청난 내구력을 가지고 있으며 여러대의 드론들을 
				출격시켜 공격한다. 드론들은 무적이다.
				하지만 기동성이 매우 낮다.
				상대와 거리를 계속 유지한다.
	3) 탱크
		- 특징: 캐리어급은 아니지만 상당한 내구력을 가지고 있다.
				공격력은 어썰트에 비해 굉장히 낮다.
				몇 초 동안은 상대와 거리를 유지하다가 어느 순간
				순식간에 상대에게 돌진하는 충각 전술을 구사한다.
				돌진하는 순간 기동성이 함선의 부피와 질량에 비해
				대폭 증가된다.
				충각당한 상대는 바로 격파당한다.
	4) 익스플로러
		- 아직 구현 안함.


* 모듈의 종류 *
	1) 공격 모듈
		1 - 1) 프로젝타일
			- 특징: 가장 표준적인 무기. 
					적당히 빠르고, 적당한 사정거리를 지니고 있으며, 
					적당한 각도내에서 공격가능하고, 데미지도 나쁘지 않다.
					매우 빠른 연사속도는 덤.
					재장전을 할 필요가 없으나 딱히 크게 부각되는 장점은 없다.
			[역할 보너스]
			- 함선 파워그리드 증가
			- 함선 기동성 증가
			- 함선 타겟팅 스피드 증가
			- 함선 방어력 약간 증가
			- 함선 내구력 약간 증가

			[역할 페널티]
			- 발사체 데미지 약간 감소
			- 탄속 약간 감소
			- 함선 최대 속력 약간 감소

		1 - 2) 플라즈마
			- 특징: 강력한 데미지, 빠른 연사속도, 매우 넓은 공격 각도를 가지고 있다.
					하지만 공격 가능 거리가 매우 짧고 재장전을 해야 한다.
			[역할 보너스]
			- 발사체 데미지 증가
			- 함선 최대 속력 증가
			- 탄속 증가
			- 함선 타겟팅 스피드 대폭 증가

			[역할 페널티]
			- 모듈 활성화시 소모되는 동력 증가
			- 모듈 사정거리 대폭 감소

		1 - 3) 하이브리드
			- 특징: 최고로 강력한 데미지, 매우 빠른 탄속, 굉장히 긴 유효사정거리를 자랑한다.
					하지만 공격 각도가 매우 좁고, 함선의 기동성이 크게 낮아지며, 재장전을 해야한다.
			[역할 보너스]
			- 발사체 데미지 증가
			- 탄속 대폭 증가
			- 사정거리 대폭 증가

			[역할 페널티]
			- 모듈 공격 가능 각도 감소
			- 함선 최대 속력 감소
			- 함선 기동성 감소
			- 함선 타겟팅 스피드 감소
			- 함선 파워그리드 감소

	2) 방어 모듈 (TODO: 일단 방어 모듈은 아무것도 구현이 안 되어있음)
		2 - 1) 아머 플레이트
			- 특징: 함선에 높은 방어력과 내구성을 부여한다.
					하지만 함선의 속도가 낮아지고 질량, 부피가 조금 증가한다.
		2 - 2) 경화제
			- 특징: 방어력을 대폭 증가시키고 질량과 부피가 줄어든다.
					함선의 속도도 빨라지지만 함선의 내구성이 대폭 감소한다.
		2 - 3) 레이어 플레이트
			- 특징: 가장 표준적인 방어 모듈. 방어력은 크게 떨어지지만,
					함선의 내구성이 크게 증가 되고 다른 모든 스탯에 보너스 
					효과를 받는다.

	3) 서포트 모듈 (TODO: 이 역시 아무것도 구현이 안 되어있음)
		3 - 1) 센서 업그레이드
			- 특징: 함선의 타겟팅 속도를 높인다. 
					하지만 함선의 CPU를 많이 사용하고 모듈의 공격 가능 각도가 
					조금 감소한다.
		3 - 2) 좌우각 업그레이드
			- 특징: 공격 모듈의 교전 가능 각도를 증가시킨다.
					하지만 교전시 사용되는 파워 사용량이 크게 증가된다.
		3 - 3) 카고 익스텐션
			- 특징: 화물 운반 사이즈(인벤토리)가 증가된다.
					하지만 기동성이 아주 조금 떨어진다.
		3 - 4) CPU 업그레이드
			- 특징: 함선의 CPU를 증가시킨다. 
					페널티는 없다.
		3 - 5) 그리드 업그레이드
			- 특징: 함선의 파워를 증가시킨다.
					하지만 CPU가 조금 감소한다.